{
  "project_info": {
    "project_number": "830189671764",
    "firebase_url": "https://cryptoalarm-d6a82.firebaseio.com",
    "project_id": "cryptoalarm-d6a82",
    "storage_bucket": "cryptoalarm-d6a82.appspot.com"
  },
  "client": [
    {
      "client_info": {
        "mobilesdk_app_id": "1:830189671764:android:2fb97fcebc38040a",
        "android_client_info": {
          "package_name": "alarm.crypto.cryptoalarm"
        }
      },
      "oauth_client": [
        {
          "client_id": "830189671764-coq57rd1t6surd7t0abdtl34ipl55n9k.apps.googleusercontent.com",
          "client_type": 1,
          "android_info": {
            "package_name": "alarm.crypto.cryptoalarm",
            "certificate_hash": "34f9ba918813b625b3189110bcb22d7559a2d22b"
          }
        },
        {
          "client_id": "830189671764-q77nfoi6rjvruus13g7rklicjpg4c26v.apps.googleusercontent.com",
          "client_type": 3
        }
      ],
      "api_key": [
        {
          "current_key": "AIzaSyA-nn6Tk46rz511sSz6PAL219d308X2Dxc"
        }
      ],
      "services": {
        "analytics_service": {
          "status": 1
        },
        "appinvite_service": {
          "status": 2,
          "other_platform_oauth_client": [
            {
              "client_id": "830189671764-q77nfoi6rjvruus13g7rklicjpg4c26v.apps.googleusercontent.com",
              "client_type": 3
            }
          ]
        },
        "ads_service": {
          "status": 2
        }
      }
    }
  ],
  "configuration_version": "1"
}